{"Images":[
{"name":"noTexture","path":"/resources/noTexture.jpg"},

{"name":"background","path":"/resources/20141113_64.jpg"},

{"name":"map","path":"/resources/dev_field_skaliert1.png"},
{"name":"light1","path":"/resources/dev_field_skaliert2.png"},
{"name":"light2","path":"/resources/dev_field_skaliert3.png"},
{"name":"walls","path":"/resources/dev_field_skaliert4.png"},
{"name":"roomHighlight","path":"/resources/dev_field_skaliert5.png"},

{"name":"murdererCards","path":"/resources/dev_cards_scaliert1.png"},
{"name":"weaponCards","path":"/resources/dev_cards_scaliert2.png"},
{"name":"roomCards","path":"/resources/dev_cards_scaliert3.png"},
{"name":"unknownCards","path":"/resources/dev_cards_scaliert4.png"},

{"name":"playerIcons","path":"/resources/dev_figures1.png"},
{"name":"weaponIcons","path":"/resources/dev_figures2.png"},
{"name":"roomIcons","path":"/resources/dev_figures3.png"},
{"name":"unknownIcons","path":"/resources/dev_figures4.png"},

{"name":"die","path":"/resources/dev_wuerfel.png"},
{"name":"dieSmall","path":"/resources/dev_wuerfel_small.png"},
{"name":"sound","path":"/resources/dev_ton.png"}
]}