{"Rooms":[
{"name":"hall","wx1":11.5,"wy1":4,"x":8,"y":0,"w":7,"h":8,"px1":13,"py1":4.5,"px2":10.5,"py2":0.7,"px3":9.7,"py3":1.3,"px4":9.5,"py4":5.5,"px5":13.5,"py5":3.1,"px6":13,"py6":1.6,"px7":12.2,"py7":2.1,"px8":9.7,"py8":4.4}, 
{"name":"lounge","wx1":18.7,"wy1":4.4,"x":17,"y":0,"w":7.5,"h":7,"px1":18.8,"py1":2,"px2":20.5,"py2":2,"px3":20.5,"py3":4.4,"px4":22.4,"py4":2.4,"px5":22.3,"py5":3.4,"px6":20,"py6":0.6,"px7":21.4,"py7":1.3,"px8":18,"py8":2.8}, 
{"name":"diningroom","wx1":21.9,"wy1":11.4,"x":16,"y":8,"w":8.5,"h":9,"px1":20.5,"py1":13.8,"px2":21.7,"py2":13.5,"px3":17.4,"py3":10.1,"px4":17,"py4":11.1,"px5":21.8,"py5":10.2,"px6":22.8,"py6":12.3,"px7":18.2,"py7":13.4,"px8":19.5,"py8":10}, 
{"name":"kitchen","wx1":21,"wy1":20.6,"x":18,"y":18,"w":6.5,"h":7,"px1":21.9,"py1":19.2,"px2":20.5,"py2":19.2,"px3":22.1,"py3":21.8,"px4":21.3,"py4":22.2,"px5":19.2,"py5":19.3,"px6":19.2,"py6":21.9,"px7":22.3,"py7":20.6,"px8":20.3,"py8":22.1}, 
{"name":"ballroom","wx1":10.3,"wy1":21.1,"x":8,"y":17,"w":9,"h":8,"px1":12.6,"py1":20.3,"px2":9.3,"py2":18.8,"px3":9.7,"py3":20,"px4":12.1,"py4":17.5,"px5":13.9,"py5":19.3,"px6":13.5,"py6":18.2,"px7":12,"py7":22.8,"px8":8.5,"py8":17.5}, 
{"name":"conservatory","wx1":2.2,"wy1":20.5,"x":0,"y":19,"w":7,"h":6,"px1":2.9,"py1":21.7,"px2":4,"py2":20.8,"px3":2.5,"py3":19.4,"px4":1.2,"py4":22.5,"px5":4.5,"py5":22.7,"px6":0.4,"py6":21.5,"px7":3.5,"py7":23,"px8":0.9,"py8":20.4}, 
{"name":"billiard","wx1":2.6,"wy1":14,"x":0,"y":12,"w":7,"h":7,"px1":2.4,"py1":12.4,"px2":4.5,"py2":14.5,"px3":4.3,"py3":12.6,"px4":0.3,"py4":13.6,"px5":0.4,"py5":12.5,"px6":3.7,"py6":15.6,"px7":2,"py7":15.5,"px8":0.6,"py8":15.3}, 
{"name":"library","wx1":3.6,"wy1":8,"x":0,"y":6,"w":8,"h":6,"px1":2.2,"py1":6.8,"px2":1,"py2":7.1,"px3":3,"py3":9.5,"px4":4.5,"py4":9,"px5":2,"py5":9.3,"px6":0.6,"py6":8.5,"px7":5.4,"py7":7.9,"px8":4.7,"py8":7}, 
{"name":"study","wx1":2.25,"wy1":2.75,"x":0,"y":0,"w":7,"h":5,"px1":2.2,"py1":1.6,"px2":1.4,"py2":0.8,"px3":4.9,"py3":0.3,"px4":3.6,"py4":0.9,"px5":4,"py5":1.7,"px6":1.1,"py6":2.6,"px7":5.5,"py7":1.4,"px8":0.1,"py8":1}, 
{"name":"pool","wx1":10.5,"wy1":9.5,"wx2":10.5,"wy2":10.5,"wx3":11.5,"wy3":10.5,"wx4":10.5,"wy4":11.5,"wx5":11.5,"wy5":11.5,"wx6":11.5,"wy6":12.5,"wx7":11.5,"wy7":9.5,"wx8":10.5,"wy8":12.5,"x":9,"y":8,"w":6,"h":8,"px1":12.7,"py1":10,"px2":12.7,"py2":11,"px3":9.3,"py3":12,"px4":10,"py4":8.3,"px5":9.3,"py5":9.2,"px6":10.7,"py6":13.7,"px7":12.6,"py7":12.5,"px8":12,"py8":13.6}]}